<?xml version="1.0" standalone="no"?>
<!DOCTYPE svg PUBLIC "-//W3C//DTD SVG 1.1//EN" "http://www.w3.org/Graphics/SVG/1.1/DTD/svg11.dtd">
<svg xmlns="http://www.w3.org/2000/svg">
<metadata>Generated by Fontastic.me</metadata>
<defs>
<font id="untitled-font-2" horiz-adv-x="512">
<font-face font-family="untitled-font-2" units-per-em="512" ascent="480" descent="-32"/>
<missing-glyph horiz-adv-x="512" />

<glyph glyph-name="add-to-play-list" unicode="&#99;" d="M308 335l-308 0 0-51 308 0z m0 103l-308 0 0-52 308 0z m103-206l0 103-52 0 0-103-102 0 0-51 102 0 0-103 52 0 0 103 102 0 0 51z m-411-51l205 0 0 51-205 0z"/>
<glyph glyph-name="queue" unicode="&#100;" d="M0 480l515 0 0-53-515 0z m109-151l406 0 0-53-406 0z m108-151l298 0 0-54-298 0 0 54z m-67-31l-150-111 0 218z"/>
<glyph glyph-name="heart-outline" unicode="&#101;" d="M458 448c-57 48-147 41-202-15-55 56-145 63-202 15-76-64-65-167-11-222l175-178c10-10 24-16 38-16 14 0 28 5 38 16l175 178c54 55 65 158-11 222z m-23-188l-176-179c-2-2-4-2-6 0l-176 179c-36 37-44 108 8 151 38 33 98 28 136-11l35-35 35 35c38 39 98 44 137 11 51-43 43-114 7-151z"/>
<glyph glyph-name="play" unicode="&#102;" d="M456 297l-352 208c-28 17-72 1-72-41l0-416c0-38 41-60 72-41l352 208c32 18 32 64 0 82z"/>
<glyph glyph-name="checkbox-unchecked" unicode="&#98;" d="M256 439c-25 0-48-5-71-15-23-9-42-22-58-39-17-16-30-35-39-58-10-23-15-46-15-71 0-25 5-48 15-71 9-23 22-42 39-58 16-17 35-30 58-39 23-10 46-15 71-15 25 0 48 5 71 15 23 9 42 22 58 39 17 16 30 35 39 58 10 23 15 46 15 71 0 25-5 48-15 71-9 23-22 42-39 58-16 17-35 30-58 39-23 10-46 15-71 15z m219-183c0-40-9-77-29-110-20-34-46-60-80-80-33-20-70-29-110-29-40 0-77 9-110 29-34 20-60 46-80 80-20 33-29 70-29 110 0 40 9 77 29 110 20 34 46 60 80 80 33 20 70 29 110 29 40 0 77-9 110-29 34-20 60-46 80-80 20-33 29-70 29-110z"/>
<glyph glyph-name="checkbox-intermediate" unicode="&#97;" d="M256 471c59 0 110-21 152-63 42-42 63-93 63-152 0-59-21-110-63-152-42-42-93-63-152-63-59 0-110 21-152 63-42 42-63 93-63 152 0 59 21 110 63 152 42 42 93 63 152 63m129-188c0 0-258 0-258 0 0 0 0-53 0-53 0 0 258 0 258 0 0 0 0 53 0 53"/>
<glyph glyph-name="checkbox-checked" unicode="&#103;" d="M403 302c0 6-1 10-5 13l-26 26c-3 4-8 6-13 6-5 0-9-2-12-6l-117-116-65 64c-3 4-7 6-12 6-5 0-10-2-13-6l-26-25c-4-4-5-8-5-13 0-6 1-10 5-13l103-104c4-3 8-5 13-5 5 0 10 2 13 5l155 155c4 4 5 8 5 13z m72-46c0-40-9-77-29-110-20-34-46-60-80-80-33-20-70-29-110-29-40 0-77 9-110 29-34 20-60 46-80 80-20 33-29 70-29 110 0 40 9 77 29 110 20 34 46 60 80 80 33 20 70 29 110 29 40 0 77-9 110-29 34-20 60-46 80-80 20-33 29-70 29-110z"/>
</font></defs></svg>
