metadata,metadata,metadata,metadata,metadata,item_type,views,asset_type,mime_type,asset_metadata,device_uuid,path,filename,tags,tags,tags,tags
metadata,metadata,metadata,metadata,metadata,item_type,views,asset_type,mime_type,metadata,device_uuid,path,filename,tag,tag,location,location
album,title,artist,duration,category,item_type,views,asset_type,mime_type,key,device_uuid,path,filename,tag_id,tag_name,location_id,location_name
Amar Varso Gunatitno,Video Test,Sadhu Madhurvadandas,111,mangalacharan,100,5,100,video/mp4,value,fce9cbf8-bcc4-4e24-9280-9b57d949c6c6,data,video1.mp4,1,janm jayanti,1,mumbai
Amar Varso Gunatitno,Video Elephant,Jaideep Swadiya,1123,multiple,300,3133,300,video/mp4,value,fce9cbf8-bcc4-4e24-9280-9b57d949c6c6,data,video2.mp4,1,janm jayanti,1,sarangpur
